To: VOICE=4325550110@domain.com
From: VOICE=2065550110@tmo.com
Date: Thu, 22 Jul 2021 23:04:30 +0000
MIME-version: 1.0
Content-type: multipart/mixed; boundary="_Part_740_1626995070"
Message-id: <2021-07-22T23:04:30Z-conn:d67cdcc8-312fbd0a-13c4-65014-551bf4-a3f4a03-551bf4>
Reply-To: VOICE=2065550110@tmo.com
X-Priority: 3
X-AppleVM-Message-Version: 1.0
Message-Context: voice-message
