To: VOICE=+12065550110@domain.com
From: VOICE=+14325550110@tmo.com
Date: Mon, 21 Jun 2021 13:16:58 +0000
MIME-version: 1.0
Content-type: multipart/mixed; boundary="_Part_922_1624281418"
Message-id: <2021-06-21T13:16:58Z-conn:d3403428-a816be0a-13c4-65014-252072-45aee167-252072>
Reply-To: VOICE=+14325550110@tmo.com
X-Priority: 3
X-AppleVM-Message-Version: 1.0
Message-Context: voice-message
